*** Life<FredkinCell> 3x3 ***

Generation = 0, Population = 5.
0-0
-0-
0-0

Generation = 1, Population = 4.
-0-
0-0
-0-

Generation = 2, Population = 0.
---
---
---

Generation = 3, Population = 0.
---
---
---

Generation = 4, Population = 0.
---
---
---

Generation = 5, Population = 0.
---
---
---

*** Life<FredkinCell> 3x3 ***

Generation = 0, Population = 9.
000
000
000

Generation = 1, Population = 4.
-1-
1-1
-1-

Generation = 2, Population = 0.
---
---
---

Generation = 3, Population = 0.
---
---
---

*** Life<FredkinCell> 3x3 ***

Generation = 0, Population = 4.
0--
0-0
0--

Generation = 1, Population = 6.
100
---
100

Generation = 2, Population = 4.
2-1
---
2-1

Generation = 3, Population = 0.
---
---
---

Generation = 4, Population = 0.
---
---
---

Generation = 5, Population = 0.
---
---
---

*** Life<FredkinCell> 4x4 ***

Generation = 0, Population = 4.
0---
-0--
--0-
---0

Generation = 1, Population = 0.
----
----
----
----

Generation = 2, Population = 0.
----
----
----
----

Generation = 3, Population = 0.
----
----
----
----

Generation = 4, Population = 0.
----
----
----
----

Generation = 5, Population = 0.
----
----
----
----

*** Life<FredkinCell> 4x4 ***

Generation = 0, Population = 5.
0--0
0---
---0
---0

Generation = 1, Population = 10.
100-
10--
0-01
--01

Generation = 2, Population = 10.
-110
2-00
10--
00--

Generation = 3, Population = 6.
-22-
3---
2--1
--0-

Generation = 4, Population = 10.
-330
4-00
30--
00--

Generation = 5, Population = 6.
-44-
5---
4--1
--0-

*** Life<FredkinCell> 4x4 ***

Generation = 0, Population = 5.
0--0
---0
---0
---0

Generation = 1, Population = 8.
-001
0-0-
--0-
--01

Generation = 2, Population = 8.
-112
-0--
00--
-0-2

Generation = 3, Population = 8.
0--3
---0
1100
-1--

Generation = 4, Population = 8.
-114
-0--
22--
-2-2

Generation = 5, Population = 8.
0--5
---0
3300
-3--

*** Life<FredkinCell> 5x3 ***

Generation = 0, Population = 5.
0--
-0-
--0
-0-
0--

Generation = 1, Population = 1.
---
---
-0-
---
---

Generation = 2, Population = 4.
---
-0-
0-0
-0-
---

Generation = 3, Population = 2.
-0-
---
---
---
-0-

Generation = 4, Population = 6.
0-0
-0-
---
-0-
0-0

Generation = 5, Population = 2.
-0-
---
---
---
-0-

*** Life<FredkinCell> 5x3 ***

Generation = 0, Population = 6.
0--
-0-
0-0
-0-
0--

Generation = 1, Population = 2.
---
0--
---
0--
---

Generation = 2, Population = 4.
0--
-0-
---
-0-
0--

Generation = 3, Population = 2.
---
--0
---
--0
---

Generation = 4, Population = 4.
--0
-0-
---
-0-
--0

Generation = 5, Population = 2.
---
0--
---
0--
---

*** Life<FredkinCell> 2x8 ***

Generation = 0, Population = 5.
0--0-0--
-0--0---

Generation = 1, Population = 4.
--0-0-0-
--0-----

Generation = 2, Population = 8.
-01----0
-0100-0-

Generation = 3, Population = 5.
0---0---
0-2-1---

Generation = 4, Population = 9.
101010--
1---20--

Generation = 5, Population = 5.
----2-0-
2-2---0-

*** Life<FredkinCell> 2x8 ***

Generation = 0, Population = 5.
-0---0--
--000---

Generation = 1, Population = 5.
0--0--0-
--1-1---

Generation = 2, Population = 8.
-0---0-0
00-0-00-

Generation = 3, Population = 8.
-100010-
1-----1-

Generation = 4, Population = 7.
-2-----0
--101-20

Generation = 5, Population = 7.
0--00--1
--2-2-3-
